<?xml version="1.0" encoding="utf-8"?>
<!-- Generator: Adobe Illustrator 19.1.0, SVG Export Plug-In . SVG Version: 6.00 Build 0)  -->
<svg version="1.1" id="Layer_1" xmlns="http://www.w3.org/2000/svg" xmlns:xlink="http://www.w3.org/1999/xlink" x="0px" y="0px"
	 viewBox="0 0 587 2" style="enable-background:new 0 0 587 2;" xml:space="preserve">
<style type="text/css">
	.st0{fill:#F9526C;}
	.st1{fill:#FFFFFF;}
	.st2{fill:#49C0B8;}
	.st3{fill:#9964D0;}
	.st4{fill:#F79E7B;}
	.st5{fill:#FFD252;}
	.st6{fill:#D44E66;}
	.st7{fill:#EC6A6A;}
	.st8{fill:none;stroke:#FFFFFF;stroke-width:6;stroke-miterlimit:10;}
	.st9{fill:#222222;}
	.st10{fill:#FFFFFF;stroke:#FFFFFF;stroke-width:0.4986;stroke-miterlimit:10;}
	.st11{fill:none;stroke:#FFD252;stroke-width:22.8887;stroke-miterlimit:10;}
	.st12{fill:#333333;}
	.st13{fill:#F1F2F2;}
	.st14{fill:none;stroke:#F1F2F2;stroke-width:9.2368;stroke-miterlimit:10;}
	.st15{fill:none;stroke:#F1F2F2;stroke-width:6.1579;stroke-miterlimit:10;}
	.st16{fill:none;stroke:#FFFFFF;stroke-width:2;stroke-miterlimit:10;}
	.st17{fill:#FFFFFF;stroke:#FFFFFF;stroke-width:3.297;stroke-miterlimit:10;}
	.st18{fill:#FFFFFF;stroke:#FFFFFF;stroke-width:3;stroke-miterlimit:10;}
	.st19{fill:#FFFFFF;stroke:#FFFFFF;stroke-width:2.27;stroke-miterlimit:10;}
	.st20{fill:#FFFFFF;stroke:#FFFFFF;stroke-width:2.5203;stroke-miterlimit:10;}
	.st21{fill:#F79E7B;stroke:#F79E7B;stroke-width:2;stroke-miterlimit:10;}
	.st22{fill:#9964D0;stroke:#9964D0;stroke-width:2;stroke-miterlimit:10;}
	.st23{fill:#49C0B8;stroke:#49C0B8;stroke-width:2;stroke-miterlimit:10;}
	.st24{fill:#F9526C;stroke:#F9526C;stroke-width:2;stroke-miterlimit:10;}
	.st25{fill:none;stroke:#CCCCCC;stroke-width:2;stroke-miterlimit:10;}
	.st26{fill:#4D4D4D;}
	.st27{opacity:0.7;fill:#FFFFFF;}
	.st28{fill:none;stroke:#F9526C;stroke-width:3;stroke-miterlimit:10;}
	.st29{fill:#2F236A;}
	.st30{fill:#FFFFFF;stroke:#FFFFFF;stroke-width:2.8236;stroke-miterlimit:10;}
	.st31{fill:#FFFFFF;stroke:#FFFFFF;stroke-width:2.682;stroke-miterlimit:10;}
	.st32{fill:#5D5D5D;}
	.st33{fill:none;stroke:#49C0B8;stroke-width:2;stroke-miterlimit:10;}
	.st34{fill:none;}
	.st35{fill:#FFFFFF;stroke:#FFFFFF;stroke-width:2.7959;stroke-miterlimit:10;}
	.st36{fill:#FFFFFF;stroke:#FFFFFF;stroke-width:2.6557;stroke-miterlimit:10;}
</style>
<g>
	<rect class="st2" width="587" height="2"/>
</g>
</svg>
