<?xml version="1.0" encoding="utf-8"?>
<!-- Generator: Adobe Illustrator 19.1.0, SVG Export Plug-In . SVG Version: 6.00 Build 0)  -->
<svg version="1.1" id="Layer_1" xmlns="http://www.w3.org/2000/svg" xmlns:xlink="http://www.w3.org/1999/xlink" x="0px" y="0px"
	 viewBox="0 0 463.6 89.2" style="enable-background:new 0 0 463.6 89.2;" xml:space="preserve">
<style type="text/css">
	.st0{fill:#F9526C;}
	.st1{fill:#FFFFFF;}
	.st2{fill:#49C0B8;}
	.st3{fill:#9964D0;}
	.st4{fill:#F79E7B;}
	.st5{fill:#FFD252;}
	.st6{fill:#D44E66;}
	.st7{fill:#EC6A6A;}
	.st8{fill:none;stroke:#FFFFFF;stroke-width:6;stroke-miterlimit:10;}
	.st9{fill:#222222;}
	.st10{fill:#FFFFFF;stroke:#FFFFFF;stroke-width:0.4986;stroke-miterlimit:10;}
	.st11{fill:none;stroke:#FFD252;stroke-width:22.8887;stroke-miterlimit:10;}
	.st12{fill:#333333;}
	.st13{fill:#F1F2F2;}
	.st14{fill:none;stroke:#F1F2F2;stroke-width:9.2368;stroke-miterlimit:10;}
	.st15{fill:none;stroke:#F1F2F2;stroke-width:6.1579;stroke-miterlimit:10;}
	.st16{fill:none;stroke:#FFFFFF;stroke-width:2;stroke-miterlimit:10;}
	.st17{fill:#FFFFFF;stroke:#FFFFFF;stroke-width:3.297;stroke-miterlimit:10;}
	.st18{fill:#FFFFFF;stroke:#FFFFFF;stroke-width:3;stroke-miterlimit:10;}
	.st19{fill:#FFFFFF;stroke:#FFFFFF;stroke-width:2.27;stroke-miterlimit:10;}
	.st20{fill:#FFFFFF;stroke:#FFFFFF;stroke-width:2.5203;stroke-miterlimit:10;}
	.st21{fill:#F79E7B;stroke:#F79E7B;stroke-width:2;stroke-miterlimit:10;}
	.st22{fill:#9964D0;stroke:#9964D0;stroke-width:2;stroke-miterlimit:10;}
	.st23{fill:#49C0B8;stroke:#49C0B8;stroke-width:2;stroke-miterlimit:10;}
	.st24{fill:#F9526C;stroke:#F9526C;stroke-width:2;stroke-miterlimit:10;}
	.st25{fill:none;stroke:#CCCCCC;stroke-width:2;stroke-miterlimit:10;}
	.st26{fill:#4D4D4D;}
	.st27{opacity:0.7;fill:#FFFFFF;}
	.st28{fill:none;stroke:#F9526C;stroke-width:3;stroke-miterlimit:10;}
	.st29{fill:#2F236A;}
	.st30{fill:#FFFFFF;stroke:#FFFFFF;stroke-width:2.8236;stroke-miterlimit:10;}
	.st31{fill:#FFFFFF;stroke:#FFFFFF;stroke-width:2.682;stroke-miterlimit:10;}
	.st32{fill:#5D5D5D;}
	.st33{fill:none;stroke:#49C0B8;stroke-width:2;stroke-miterlimit:10;}
	.st34{fill:none;}
	.st35{fill:#FFFFFF;stroke:#FFFFFF;stroke-width:2.7959;stroke-miterlimit:10;}
	.st36{fill:#FFFFFF;stroke:#FFFFFF;stroke-width:2.6557;stroke-miterlimit:10;}
</style>
<g>
	<path class="st34" d="M153,33.3c-6.1,0-10.3,4.9-10.3,11.9c0,7,4.2,11.8,10.3,11.8c6.1,0,10.1-4.9,10.1-11.8
		C163.1,38.1,159,33.3,153,33.3z"/>
	<path class="st34" d="M266.4,33.7c-6.3,0-10.8,5.2-10.8,12.7c0,7.6,4.4,12.8,10.8,12.8c6.5,0,10.9-5.2,10.9-12.8
		C277.4,39,272.9,33.7,266.4,33.7z"/>
	<path class="st34" d="M79.2,32.1c-5.4,0-9.1,3.9-10.1,9.9h19.5C88.6,35.9,84.8,32.1,79.2,32.1z"/>
	<path class="st1" d="M32.2,21.5C25,21.6,19,24.5,16,30.2v-8.3H0v49h16V45.2c0-5.8,4-9.9,9.7-9.9c5.2,0,8.3,3.5,8.3,9.2v26.4h16
		V40.2C50,28.9,43,21.5,32.2,21.5z"/>
	<path class="st1" d="M79,21.3c-15.1,0-25.4,10.2-25.4,25.3c0,14.8,9.9,24.9,25.9,24.9c9,0,16.3-3.1,21.3-8.5l-8.2-8
		c-3.3,3.3-7.4,4.5-11.7,4.5c-5.8,0-9.9-3.5-11.5-9.5h34.3C104.7,32.9,96.2,21.3,79,21.3z M69.1,41.9c1-6,4.7-9.9,10.1-9.9
		c5.6,0,9.4,3.9,9.4,9.9H69.1z"/>
	<path class="st1" d="M115.9,0c-4.8,0-8.2,3.4-8.2,8.2c0,4.9,3.4,8.3,8.2,8.3c4.8,0,8.2-3.4,8.2-8.3C124.2,3.4,120.7,0,115.9,0z"/>
	<rect x="108" y="21.9" class="st1" width="16" height="49"/>
	<path class="st1" d="M163,28.2c-3-4.3-8.1-6.6-14.3-6.5c-12.2,0-20.6,9.2-20.6,23.1c0,14.2,8.7,23.6,21,23.6c6.1,0,11-2.4,14-6.5
		V67c0,6.1-4.5,10-12,10c-5.2,0-10.7-1.8-15.1-4.9l-5.4,10.6c5.5,3.7,13.4,6.4,21.9,6.4c15.7,0,26.6-8.8,26.6-22.6V21.9h-16V28.2z
		 M153,57.1c-6.1,0-10.3-4.9-10.3-11.8c0-7.1,4.2-11.9,10.3-11.9c6.1,0,10.1,4.8,10.1,11.9C163.1,52.2,159,57.1,153,57.1z"/>
	<path class="st1" d="M216.3,21.5c-7.2,0.1-13.3,3-16.3,8.8V3.9h-16v67h16v-24c0-6.7,3.5-11.6,9.7-11.6c5.3,0,8.3,3.5,8.3,9.2v26.4
		h16V40.2C234,28.9,227,21.5,216.3,21.5z"/>
	<path class="st1" d="M270.4,21.7c-6.1,0-11.4,2.5-14.4,7V3.9h-16v67h16v-6.5c3,4.5,8.4,7.1,14.8,7.1c13.7,0,22.5-9.9,22.5-24.7
		C293.3,31.7,284.1,21.7,270.4,21.7z M266.4,59.1c-6.3,0-10.8-5.2-10.8-12.8c0-7.4,4.4-12.7,10.8-12.7c6.5,0,10.9,5.2,10.9,12.7
		C277.4,53.9,272.9,59.1,266.4,59.1z"/>
	<path class="st1" d="M368,30.5v-8.5h-16v49h16v-25c1-6.9,7-11.1,16-10.3V21.5C377,21.6,371,24.8,368,30.5z"/>
	<rect x="389" y="3.9" class="st1" width="16" height="67"/>
	<path class="st1" d="M448,21.9l-10.6,32.4l-11.9-32.4h-16.1l20.3,47.8l-1.2,2.5c-1.3,2.6-3.3,3.9-6.1,3.9c-2.3,0-4.2-0.8-6.4-2.6
		l-6.5,10.7c4.3,3.3,8.8,5,14.2,5c9,0,15.2-4.5,18.8-13.4l21.1-54H448z"/>
	<path class="st1" d="M322.2,21.8c-13.6,0-25.3,11.3-25.3,24.9c0,5.8,2.2,11.2,5.7,15.2h0l19.7,24.6l19.7-24.6h0
		c3.5-4,5.7-9.4,5.7-15.2C347.5,33.1,335.8,21.8,322.2,21.8z M322.2,35.1c6.3,0,11.9,5.7,11.9,11.9c0,6.3-5.7,12-11.9,12
		c-6.3,0-11.9-5.7-11.9-12C310.3,40.8,315.9,35.1,322.2,35.1z"/>
	<path class="st2" d="M322.2,59.1c6.3,0,11.9-5.7,11.9-12c0-6.3-5.7-11.9-11.9-11.9c-6.3,0-11.9,5.7-11.9,11.9
		C310.3,53.4,315.9,59.1,322.2,59.1z"/>
</g>
</svg>
