<?xml version="1.0" encoding="utf-8"?>
<!-- Generator: Adobe Illustrator 21.1.0, SVG Export Plug-In . SVG Version: 6.00 Build 0)  -->
<svg version="1.1" id="Layer_1" xmlns="http://www.w3.org/2000/svg" xmlns:xlink="http://www.w3.org/1999/xlink" x="0px" y="0px"
	 viewBox="0 0 532 153" style="enable-background:new 0 0 532 153;" xml:space="preserve">
<style type="text/css">
	.st0{fill:none;}
	.st1{fill:#FFFFFF;}
</style>
<rect class="st0" width="532" height="153"/>
<g>
	<g>
		<path class="st1" d="M203.4,86.3h-0.5h-5.2v7.1h-5.6V68.5h10.8c6.5,0,10.2,3.1,10.2,8.6c0,3.8-1.6,6.6-4.7,8l5.3,8.2h-6.4
			L203.4,86.3z M202.9,81.6c3.1,0,4.9-1.4,4.9-4.3c0-2.8-1.8-4.2-4.9-4.2h-5.2v8.4L202.9,81.6L202.9,81.6z"/>
		<path class="st1" d="M227.7,73.1v5.4h12v4.7h-12v5.5h13.7v4.7H222V68.5h19v4.7L227.7,73.1L227.7,73.1z"/>
		<path class="st1" d="M276.3,96.4c-1.9,1.7-4.6,2.7-7,2.7c-3.4,0-6.3-2.1-8-5.5c-7.4-0.2-13-5.6-13-12.7c0-7.3,5.8-12.6,13.4-12.6
			c7.6,0,13.4,5.4,13.4,12.6c0,5.5-3.4,10.1-8.5,11.9c1,1.2,2.2,1.9,3.4,1.9c1.2,0,2.8-0.7,4.4-2L276.3,96.4z M261.7,88.7
			c4.2,0,7.5-3.4,7.5-7.8s-3.4-7.7-7.5-7.7c-4.2,0-7.7,3.3-7.7,7.7C254,85.3,257.5,88.7,261.7,88.7z"/>
		<path class="st1" d="M305.2,83c0,6.6-4.3,10.7-11.2,10.7c-6.9,0-11.3-4.1-11.3-10.7V68.5h5.6V83c0,3.6,2.3,5.8,5.7,5.8
			s5.5-2.2,5.5-5.8V68.5h5.6L305.2,83L305.2,83z"/>
		<path class="st1" d="M320.4,73.1v5.4h12v4.7h-12v5.5h13.7v4.7h-19.4V68.5h19v4.7L320.4,73.1L320.4,73.1z"/>
		<path class="st1" d="M361.5,70.9l-2.2,4.7c-2.6-1.6-5.8-2.6-7.8-2.6c-1.9,0-3.2,0.7-3.2,2c0,4.6,13.3,2,13.2,11
			c0,4.9-4.2,7.5-9.7,7.5c-4.1,0-8.2-1.6-11-3.9L343,85c2.6,2.3,6.2,3.7,8.8,3.7c2.3,0,3.7-0.9,3.7-2.4c0-4.7-13.3-2-13.3-10.8
			c0-4.5,3.9-7.4,9.6-7.4C355.5,68.2,359,69.3,361.5,70.9z"/>
		<path class="st1" d="M381.1,73.3v20.1h-5.6V73.3h-7.6v-4.8h20.8v4.8H381.1z"/>
		<path class="st1" d="M414.5,70.9l-2.2,4.7c-2.6-1.6-5.8-2.6-7.8-2.6c-1.9,0-3.2,0.7-3.2,2c0,4.6,13.3,2,13.2,11
			c0,4.9-4.2,7.5-9.7,7.5c-4.1,0-8.2-1.6-11-3.9L396,85c2.6,2.3,6.2,3.7,8.8,3.7c2.3,0,3.7-0.9,3.7-2.4c0-4.7-13.3-2-13.3-10.8
			c0-4.5,3.9-7.4,9.6-7.4C408.5,68.2,412,69.3,414.5,70.9z"/>
	</g>
</g>
<g>
	<path class="st0" d="M76.9,7.2c-38,0-69,30.9-69,68.9s31,69,69,69s69-31,69-69S114.9,7.2,76.9,7.2z M72.4,16.5c0-2.2,1.9-4,4.1-4
		s4.1,1.8,4.1,4v9.3c0,2.2-1.9,4-4.1,4s-4.1-1.8-4.1-4C72.4,25.7,72.4,16.5,72.4,16.5z M26.5,80.6h-9.3c-2.2,0-4-1.9-4-4.1
		s1.8-4.1,4-4.1h9.3c2.2,0,4,1.9,4,4.1S28.6,80.6,26.5,80.6z M80.7,135.9c0,2.2-1.9,4-4.1,4s-4.1-1.8-4.1-4v-9.3c0-2.2,1.9-4,4.1-4
		s4.1,1.8,4.1,4V135.9z M95.9,61.9L85.4,72c0.7,1.3,0.9,2.7,0.9,4.2c0,5.2-4.2,9.5-9.5,9.5c-5.3,0-9.5-4.2-9.5-9.5
		c0-1.6,0.5-3.3,1.3-4.7l-24-26.1c-0.5-0.6-0.8-1.3-0.7-2c0-0.7,0.4-1.4,0.9-2c0.6-0.5,1.3-0.8,2-0.7c0.7,0,1.4,0.4,2,0.9l24,25.8
		c2.7-1.3,6.1-1.2,8.8,0.2l10.6-10.1c0.6-0.5,1.3-0.8,2-0.8c0.7,0,1.4,0.4,2,0.8c0.5,0.6,0.8,1.3,0.8,2S96.5,61.3,95.9,61.9z
		 M136.5,72.3c2.2,0,4,1.9,4,4.1s-1.8,4.1-4,4.1h-9.3c-2.2,0-4-1.9-4-4.1s1.8-4.1,4-4.1C127.3,72.3,136.5,72.3,136.5,72.3z"/>
	<path class="st1" d="M131.3,21.7C116.8,7.2,97.4-0.8,76.9-0.8s-39.8,8-54.4,22.5S0,55.6,0,76.1s8,39.9,22.5,54.4S56.4,153,76.9,153
		s39.9-8,54.4-22.5c14.6-14.4,22.5-33.8,22.5-54.4S145.8,36.3,131.3,21.7z M145.9,76.1c0,38-31,69-69,69s-69-31-69-69
		s31-68.9,69-68.9S145.9,38.1,145.9,76.1z"/>
	<path class="st1" d="M94.2,57.1c-0.7,0-1.4,0.2-2,0.8L81.6,68c-2.7-1.5-6-1.6-8.8-0.2L48.7,41.7c-0.5-0.6-1.2-0.8-2-0.9
		c-0.7,0-1.4,0.2-2,0.7c-0.6,0.5-0.8,1.2-0.9,2c0,0.7,0.2,1.4,0.7,2l24.1,25.9c-0.8,1.4-1.3,3.1-1.3,4.7c0,5.2,4.2,9.5,9.5,9.5
		s9.5-4.2,9.5-9.5c0-1.4-0.4-2.9-0.9-4.2l10.6-10.1c0.6-0.5,0.8-1.2,0.8-2c0-0.8-0.2-1.4-0.8-2C95.6,57.4,94.9,57.1,94.2,57.1z"/>
	<path class="st1" d="M76.5,29.7c2.2,0,4.1-1.8,4.1-4v-9.3c0-2.2-1.9-4-4.1-4s-4.1,1.8-4.1,4v9.3C72.4,28,74.3,29.7,76.5,29.7z"/>
	<path class="st1" d="M76.5,122.6c-2.2,0-4.1,1.8-4.1,4v9.3c0,2.2,1.9,4,4.1,4s4.1-1.8,4.1-4v-9.3C80.7,124.4,78.7,122.6,76.5,122.6
		z"/>
	<path class="st1" d="M123.4,76.5c0,2.2,1.8,4.1,4,4.1h9.3c2.2,0,4-1.9,4-4.1s-1.8-4.1-4-4.1h-9.3C125.2,72.3,123.4,74.2,123.4,76.5
		z"/>
	<path class="st1" d="M26.5,72.3h-9.3c-2.2,0-4,1.9-4,4.1s1.8,4.1,4,4.1h9.3c2.2,0,4-1.9,4-4.1S28.6,72.3,26.5,72.3z"/>
</g>
</svg>
